1,1,"District Governor"
1,2,"District Chief Training Advisor"
1,3,"District Trainer "
1,4,"District Chief Advisor and Vice Governor"
1,5,"District Special Advisor to Governor"
1,6,"District Chief Special Counselor &  Personal Advisor to Governor"
1,7,"District Chief Counselor"
1,8,"District Chief Counselor"
1,9,"District Chief Counselor"
1,10,"District Chief Counselor"
1,11,"Governor's Principal Aide "
1,12,"Governor's Principal Aide "
1,13,"Governor's Principal Aide "
1,14,"Governor's Principal Aide "
1,15,"Governor's Principal Aide "
1,16,"District Chief Coordinator"
1,17,"District Chief Coordinator"
1,18,"District Chief Coordinator"
1,19,"District Chief Coordinator"
1,20,"District Training Team "
1,21,"District Training Team "
1,22,"District Training Team "
1,23,"District Training Team "
1,24,"District Chief Strategic planner "
1,25,"Executive District Secretary "
1,26,"District Secretary - Promotion of Various Events "
1,27,"District Secretary"
1,28,"District Secretary"
1,29,"District Secretary"
1,30,"District Secretary"
1,31,"District Secretary"
1,32,"District Secretary"
1,33,"District Secretary"
1,34,"District Secretary"
1,35,"District Secretary"
1,36,"District Secretary"
1,37,"District Secretary"
1,38,"District Secretary"
1,39,"District Secretary"
1,40,"District Secretary"
1,41,"Dist. Coordinator- Rotary India Literacy Mission RILM"
1,42,"Dist. Chief Finance Officer"
1,43,"District Treasurer "
1,44,"Dist. Chair TRF Support"
1,45,"Dist. Chair TRF Program "
1,46,"District Membership Chair "
1,47,"Chief of  Dist. Publications & GML Editor "
1,48,"District Chief Sargent At Arms "
